…
## Probalem 1

This dataset contains 1384617 rows and 15 columns.

Observations are the level of items in orders by user. There are user /
order variables – user ID, order ID, order day, and order hour. There
are also item variables – name, aisle, department, and some numeric
codes.

How many aisles, and which are most items from?

    ## # A tibble: 134 x 2
    ##    aisle                              n
    ##    <chr>                          <int>
    ##  1 fresh vegetables              150609
    ##  2 fresh fruits                  150473
    ##  3 packaged vegetables fruits     78493
    ##  4 yogurt                         55240
    ##  5 packaged cheese                41699
    ##  6 water seltzer sparkling water  36617
    ##  7 milk                           32644
    ##  8 chips pretzels                 31269
    ##  9 soy lactosefree                26240
    ## 10 bread                          23635
    ## # ... with 124 more rows
…
Apples vs ice cream..

    ## # A tibble: 2 x 8
    ## # Groups:   product_name [2]
    ##   product_name       `0`   `1`   `2`   `3`   `4`   `5`   `6`
    ##   <chr>            <dbl> <dbl> <dbl> <dbl> <dbl> <dbl> <dbl>
    ## 1 Coffee Ice Cream  13.8  14.3  15.4  15.3  15.2  12.3  13.8
    ## 2 Pink Lady Apples  13.4  11.4  11.7  14.2  11.6  12.8  11.9

## Probalem 2

#### 2.1 Load, tidy, and otherwise wrangle the data

    ## # A tibble: 50,400 x 6
    ##    week  day_id day    minute ac_counts weekday_weekend
    ##    <fct> <fct>  <fct>   <int>     <dbl> <fct>          
    ##  1 1     1      Friday      1      88.4 weekday        
    ##  2 1     1      Friday      2      82.2 weekday        
    ##  3 1     1      Friday      3      64.4 weekday        
    ##  4 1     1      Friday      4      70.0 weekday        
    ##  5 1     1      Friday      5      75.0 weekday        
    ##  6 1     1      Friday      6      66.3 weekday        
    ##  7 1     1      Friday      7      53.8 weekday        
    ##  8 1     1      Friday      8      47.8 weekday        
    ##  9 1     1      Friday      9      55.5 weekday        
    ## 10 1     1      Friday     10      43.0 weekday        
    ## # ... with 50,390 more rows
…
**Variable type: numeric**

| skim\_variable | n\_missing | complete\_rate |  mean |     sd |     p0 |   p25 |  p50 |  p75 |  p100 |
| :------------- | ---------: | -------------: | ----: | -----: | -----: | ----: | ---: | ---: | ----: |
| prcp           |     145838 |           0.94 |  2.98 |   7.82 |    0.0 |   0.0 |  0.0 |  2.3 |  2286 |
| snow           |     381221 |           0.85 |  4.99 |  27.22 |    0.0 |   0.0 |  0.0 |  0.0 | 10160 |
| snwd           |     591786 |           0.77 | 37.31 | 113.54 |    0.0 |   0.0 |  0.0 |  0.0 |  9195 |
| tmax           |    1134358 |           0.56 | 13.98 |  11.14 | \-38.9 |   5.0 | 15.0 | 23.3 |    60 |
| tmin           |    1134420 |           0.56 |  3.03 |  10.40 | \-59.4 | \-3.9 |  3.3 | 11.1 |    60 |

    ## # A tibble: 281 x 4
    ##     snow na.rm       n  rank
    ##    <dbl> <lgl>   <int> <int>
    ##  1     0 TRUE  2008509     1
    ##  2     3 TRUE     8790    10
    ##  3     5 TRUE     9748     8
    ##  4     8 TRUE     9962     7
    ##  5    10 TRUE     5106    12
    ##  6    13 TRUE    23095     4
    ##  7    15 TRUE     3672    16
    ##  8    18 TRUE     3226    17
    ##  9    20 TRUE     4797    13
    ## 10    23 TRUE     1959    24
    ## # ... with 271 more rows
…
